Project 1: Exploratory Data Analysis
…
3. Wrangling (40 pts)

# Gives Chlamydia and Gonorrhea percent data
Chlam_PCT <- STDs %>% mutate(Chlam_PCT = Chlamydia.Cases/Population * 
    100)
STD_PCT <- Chlam_PCT %>% mutate(Gon_PCT = Gonorrhea.Cases/Population * 
    100)
Tot_STD <- STD_PCT %>% mutate(Tot_STD = Chlamydia.Cases + Gonorrhea.Cases)
Tot_STD <- Tot_STD %>% mutate(Tot_STD.pct = Tot_STD/Population * 
    100)
Tot_STD %>% filter(Population > 50000) %>% group_by(Tot_STD, 
    Tot_STD.pct) %>% arrange(-Year)

## # A tibble: 323 x 12
## # Groups:   Tot_STD, Tot_STD.pct [323]
##    `Area Year` Area   Year Population Chlamydia.Cases Chlamydia.Rate
##    <chr>       <chr> <dbl>      <dbl>           <dbl>          <dbl>
##  1 Anderson20… Ande…  2018      58057             247           425.
##  2 Angelina20… Ange…  2018      87092             425           488 
##  3 Atascosa20… Atas…  2018      50310             426           847.
##  4 Bastrop2018 Bast…  2018      86976             825           948.
##  5 Bell2018    Bell   2018     355642            3346           941.
##  6 Bexar2018   Bexar  2018    1986049           10539           531.
##  7 Bowie2018   Bowie  2018      94324             574           608.
##  8 Brazoria20… Braz…  2018     370200            1433           387.
##  9 Brazos2018  Braz…  2018     226758            1462           645.
## 10 Cameron2018 Came…  2018     423908            2074           489.
## # … with 313 more rows, and 6 more variables: Gonorrhea.Cases <dbl>,
## #   Gonorrhea.Rate <dbl>, Chlam_PCT <dbl>, Gon_PCT <dbl>, Tot_STD <dbl>,
## #   Tot_STD.pct <dbl>
…
# Summary of Chlamydia rate
Chlam_rate <- Tot_STD %>% group_by(Population > 50000) %>% summarize(chlam_max = max(Chlamydia.Rate, 
    na.rm = T), chlam_min = min(Chlamydia.Rate, na.rm = T), chlam_median = median(Chlamydia.Rate, 
    na.rm = T), cham_mean = mean(Chlamydia.Rate, na.rm = T), 
    cham_sd = sd(Chlamydia.Rate, na.rm = T))

# Summary of Gonorrhea rate
Gon_rate <- Tot_STD %>% group_by(Population > 50000) %>% summarize(Gon_max = max(Gonorrhea.Rate, 
    na.rm = T), Gon_min = min(Gonorrhea.Rate, na.rm = T), Gon_median = median(Gonorrhea.Rate, 
    na.rm = T), Gon_mean = mean(Gonorrhea.Rate, na.rm = T), Gon_sd = sd(Gonorrhea.Rate, 
    na.rm = T))

STDs %>% summarize(STDs, mean(Chlamydia.Cases))

## # A tibble: 975 x 9
##    `Area Year` Area   Year Population Chlamydia.Cases Chlamydia.Rate
##    <chr>       <chr> <dbl>      <dbl>           <dbl>          <dbl>
##  1 Anderson20… Ande…  2018      58057             247           425.
##  2 Anderson20… Ande…  2016      57550             223           388.
##  3 Anderson20… Ande…  2017      58212             214           368.
##  4 Anderson20… Ande…  2014      57849             214           370.
##  5 Anderson20… Ande…  2015      57646             195           338.
##  6 Andrews2018 Andr…  2018      18128              74           408.
##  7 Andrews2015 Andr…  2015      18083              67           370.
##  8 Andrews2014 Andr…  2014      17445              63           361.
##  9 Andrews2017 Andr…  2017      17631              62           352.
## 10 Andrews2016 Andr…  2016      17805              51           286.
## # … with 965 more rows, and 3 more variables: Gonorrhea.Cases <dbl>,
## #   Gonorrhea.Rate <dbl>, `mean(Chlamydia.Cases)` <dbl>

STDs %>% summarize_all(n_distinct)

## # A tibble: 1 x 8
##   `Area Year`  Area  Year Population Chlamydia.Cases Chlamydia.Rate
##         <int> <int> <int>      <int>           <int>          <int>
## 1         975   238     5        966             450            875
## # … with 2 more variables: Gonorrhea.Cases <int>, Gonorrhea.Rate <int>

STDs %>% group_by(Area) %>% summarize(max_Chlamydia.Cases = max(Chlamydia.Cases)) %>% 
    arrange(-max_Chlamydia.Cases)

## # A tibble: 238 x 2
##    Area      max_Chlamydia.Cases
##    <chr>                   <dbl>
##  1 Harris                  27415
##  2 Dallas                  19084
##  3 Bexar                   13600
##  4 Tarrant                  9571
##  5 Travis                   9033
##  6 El Paso                  5699
##  7 Bell                     4034
##  8 Hidalgo                  3806
##  9 Fort Bend                3221
## 10 Collin                   2919
## # … with 228 more rows

STDs %>% group_by(Area) %>% summarize(max_Gonorrhea.Cases = max(Gonorrhea.Cases)) %>% 
    arrange(-max_Gonorrhea.Cases)

## # A tibble: 238 x 2
##    Area    max_Gonorrhea.Cases
##    <chr>                 <dbl>
##  1 Harris                 8730
##  2 Dallas                 7486
##  3 Bexar                  4510
##  4 Travis                 3423
##  5 Tarrant                3210
##  6 Bell                   1571
##  7 Lubbock                1254
##  8 El Paso                1137
##  9 Collin                  897
## 10 Nueces                  871
## # … with 228 more rows
…
